[gd_resource type="DynamicFont" load_steps=2 format=2]

[sub_resource type="DynamicFontData" id=5]
font_path = "res://Resources/SeasideResortNF.ttf"

[resource]
size = 72
font_data = SubResource( 5 )
